魔王「おら！勇者出て来い！！」勇者「ひぃ！！」

http://ayamevip.com/archives/1472633.html

不請自來的魔王，對上足不出戶的ＮＥＥＴ勇者，會發生什麼故事呢？

翼は夢、そして空へ
https://home.gamer.com.tw/creationDetail.php?sn=2187237

－－－－－－－－－－－－－－－
其他名稱：
絕對想被打倒的魔王＆絕對不想戰鬥的勇者
絕對想被打倒的魔王＆絕對不想戰鬥的勇者

－－－－－－－－－－－－－－－
貢獻者：翼は夢、そして空へ

標籤：SS、SSまとめ、あやめ速報、勇者、物語、魔王

－－－－－－－－－－－－－－－
目錄索引：
- 全
- - 001
- - 002
- - 003
- - 004
－－－－－－－－－－－－－－－

＝＝＝＝＝＝＝＝＝＝＝＝＝＝＝START


＝＝＝＝＝＝＝＝＝＝＝＝＝＝＝CHECK
第00001章：全
全
＝＝＝＝＝＝＝＝＝＝＝＝＝＝＝

－－－－－－－－－－－－－－－BEGIN
第00002話：001
001
－－－－－－－－－－－－－－－BODY

勇者家

魔王「我從城裡過來囉！！快點把我打倒吧！！」

勇者「請給我回去！！」

魔王「蠢才！！你如果不把我打倒的話，世界可就不會和平喔！！」

勇者「我討厭疼痛啊！！」

魔王「我說啊！我跟勇者要決戰可是1000年前就決定好的事情耶！！」

勇者「我才不管勒！！」

魔王「你將我打倒也透過預言的方式清楚記錄下來了！！所以說，只要打到一定程度的話，我就會故意輸給你的！！」

勇者「那麼，請不要決戰，由你直接認輸不就得了！！」

魔王「這個嘛……不行啊。根據預言，勇者和魔王間將演變為壯烈的戰鬥」

勇者「那麼，請給我回去！！我才不打勒！！」

---

魔王「喂！！好啦讓我看看你的臉吧！！」

勇者「我雖然是勇者的一族，不過也只有16歲！又不是特別強，連使用魔法之類的事情也不會！！」

魔王「即使是這樣也給我戰鬥！！」

勇者「我拒絕！！」

魔王「你這傢伙……那麼、世界就要歸我所有囉！！」

勇者「如果能夠把稅金降低的話，請便！！」

（編按：好樣的！勇者！）
魔王「……」

勇者「……」

魔王「算了！！我會再來的！！」

勇者「請別再來了！！！」

---

魔王「真是的……」

勇者母「不好意思啊……還特別勞煩您大老遠過來一趟的說」

魔王「不、請別放在心上。因為這對我來說也是相當重要的事情啊」

勇者母「您能這麼說，真是太感謝了」

魔王「媽媽大人、請把頭抬起來」

勇者母「可是……」

魔王「我會再來的」

勇者母「我這邊也會嘗試說服他的」

魔王「啊啊、麻煩您了」

勇者母「……那個」

魔王「嗯？」

勇者母「需、需要來杯茶嗎？」

魔王「不、失禮了。我不希望再造成媽媽大人更多的困擾」

勇者母「哪有這回事……」

魔王「那麼、告辭了」

---

街上

「啊、魔王」

「又來啦？」

魔王「煩死了」

「能夠再借我史萊姆醬嗎ー」

魔王「等我高興的時候吧」

魔王「唉……」

魔王「不過……如果不早點被勇者打倒的話，過不到一年世界就要被我征服了」

魔王「要統治世界、坦白說真是有夠麻煩的說……」

魔王「部族間的差異以及地域之間的差異等等……」

（編按：好認真的魔王啊）

魔王「一旦統治的話絕對會受到來自民眾不滿的攻擊……」

魔王「必須儘早採取措施才行啊……」

---

酒場

魔王「老闆、和平常一樣的」

マスター「好」

魔王「……」

魔王「嗯……？」

魔王「……」瞥

マスター「喔、怎麼啦？」

魔王「這是？」

マスター「喔喔、似乎是新成立的傭兵登錄所的樣子」

魔王「傭兵登錄所？」

マスター「無論是再怎麼強力的傭兵，也僅需透過簡單的手續就可以僱用到的說」

魔王「喔……」

魔王「……就是這個」

---

數日後　傭兵登録所

魔王「不好意思」

「是？」

魔王「這裡可以僱用傭兵吧」

「是的」

魔王「請給我看一下清冊」

「請過目」

魔王「……」

「莫非您是……魔王？」

魔王「是又如何？」

「啊哈哈、魔王需要僱用傭兵嗎？」

魔王「不是，是雇給勇者」

「啥？」

---

魔王「―――嗯」

戦士「是魔王」

僧侶「哇……好巨大……」

魔法使い「能不能請你讓我騎脖子呢」

（按編：原文「肩車」，就是大人讓小孩騎坐在脖子上的動作）

魔王「現在去勇者那邊一趟」

戦士「勇者？」

魔王「是啊。然後、請大家把我打倒」

僧侶「咦……？」

魔王「因為勇者是個家裏蹲。嘛、雖然覺得會有些辛苦，還請大家努力點」

魔法使い「那個……錢的部份呢？」

魔王「由我全額負担，請不用擔心」

戦士「呃……」

魔王「那麼、麻煩了」

---

勇者家

僧侶「不好意思，有人在嗎」

勇者母「來啦來啦」

僧侶「啊、你好」

勇者母「請問是哪位呢？」

僧侶「是由魔王大人所聘僱，勇者大人的傭兵」

勇者母「？？？」

僧侶「那個、可以去上頭嗎？」

勇者母「請、請」

僧侶「打擾了」

戦士「不好意思」

魔法使い「抱歉」

勇者母「……」

---

僧侶「勇者大人ー」咚咚

勇者「誰啊？」

僧侶「我們是被魔王大人雇來的，勇者大人的傭兵部隊」

戦士「出來露個臉吧ー」

魔法使い「門被打破也沒關係嗎？」

勇者「請、請回去吧！！我是不會戰鬥的！！」

僧侶「為什麼啊？」

勇者「因為……我很弱小的緣故！！」

戦士「這樣的話在不斷戰鬥的過程中就會變強啦」

魔法使い「LV上升的話，肌肉也會提昇嗎？」

勇者「我是不會戰鬥的！！請回去吧！！」

僧侶「……真是困擾啊」

戦士「就是說啊」

魔法使い「把門燒掉好嗎？」

（編按：魔法使的無厘頭沒有界線）

---

僧侶「由於魔王大人也拜託了、您如果不和我們一起踏上旅程的話，會非常困擾的」

勇者「誰管你啊！！」

戦士「你如果不上路的話，我們會拿不到薪水吧」

魔法使い「肚子會餓扁扁喔」

勇者「那麼、請去找其他的工作吧！！」

戦士「說得也是喔」

僧侶「也是呢……乾脆由傭兵轉職吧」

魔法使い「比如說經營蛋糕店如何？」

（按編：你們三位……）
戦士「不過、目前的工作還是傭兵啊！總之先看看臉也好吧ー」

僧侶「麻煩了」

魔法使い「再不合作一點的話，小心被地獄的業火燒成灰喔？」

勇者「我絕對不會戰鬥的！！請別管我了！！！」

僧侶「姆……」

---

僧侶「呼……」

勇者母「真抱歉……我們家的孩子實在太膽小了」

戦士「真沒辦法……」

魔法使い「肚子餓了。請來點吃的吧」

勇者母「啊啊、真是抱歉，都沒注意到。我立刻去準備點心」

魔法使い「真高興」

僧侶「接下來該怎麼辦呢？」

戦士「說的也是……總之我們三人先去先去魔王城一趟如何？」

僧侶「然後要做什麼呢？」

戦士「就是那個啊、只要依據勇者的指示，把魔王給打倒不就成了？」

僧侶「以現況而言，也只有這招了呢」

戦士「好。吃完點心後、出發吧」

僧侶「好」

魔法使い「紅茶的味道如何呢？」

---

魔王城

魔王「勇者還沒來嗎……」不耐煩

側近「請靜下心來」

魔王「可是啊……確實已經快把世界征服下來了說？」

側近「那是魔王大人培育的魔物部隊太過優秀的緣故呦」

魔王「應該要更低調一點才是的」

側近「因為魔王大人總是如此認真嘛」

魔王「失策了啊」

戦士「魔王ー」

魔王「嗯？怎麼了？」

僧侶「那個、能否和我們對戰呢？」

魔王「這是怎麼回事？」

魔法使い「我們是在勇者大人的指示下前來對戰的？」

魔王「不成！！」

戦士「為、為何啊？」

---

側近「根據預言魔王大人和勇者大人必須直接交手」

戦士「原來如此啊……」

魔王「嗯。所以、我和勇者必須直接交戰才行」

僧侶「那份預言書、請讓我看看」

魔王「可以啊、拿去」

僧侶「感謝」

魔法使い「這不是破破爛爛的書嗎？」

魔王「因為是1000年前所寫下的東西」

戦士「這個預言、非遵守不行嗎？」

魔王「那當然」

僧侶「為什麼？」

魔王「因為是預言」

戦士「……？」

魔法使い「魔王大人、似乎相當喜歡占卜？」

魔王「呃」

---

僧侶「請稍等一下」

魔王「怎麼啦？」

戦士「把這個帶出去應該沒……」

魔王「如果把預言帶出去的話，之後會很恐怖的吧」

僧侶「之後？」

魔王「寫在上頭的未來或許會實現也不一定喔？」

魔法使い「魔王大人、希望守護預言嗎？」

魔王「嗯。我是依照這個預言說的來行動的」

僧侶「那麼、現在、打算要支配世界也是……」

魔王「是因為要讓預言實現。魔王打算支配世界。這裡（指）」

戦士「呃……」

魔王「然而、不是真的支配。當志向達成一半時會勇者打倒啊」

魔法使い「魔王大人、即使會死王？」

魔王「正是如此啊。不過、魔王被打倒之後、這個世界在未来將會獲得永遠的和平。為此即便就這麼死亡的話，也是我的願望。我也已經活了數百年了啊」

戦士「……」

---

魔法使い「魔王大人、真是完美到無可匹敵啊」

魔王「我只是遵守預言罷了」

戦士「為了和平的到來，勇者一定要打倒魔王是嗎」

魔王「正是如此」

僧侶「魔王大人……」

魔王「所以、快點將勇者帶來吧」

戦士「即使這麼說……」

僧侶「勇者大人就是不肯出來呢」

魔法使い「把勇者大人房間、一把火燒掉如何？」

魔王「連你們也不行嗎」

戦士「抱歉」

魔王「那好吧。我就親自再去拜訪一次」

僧侶「我也一同前往」

戦士「好」

魔法使い「三點的點心會是餅乾嗎？」

---

勇者家

魔王「勇者！！給我出來！！｣咚咚

勇者「請別再來了！！說了那麼多次怎麼還不明白啊！！」

魔王「好了啦、只要出來就好了！！」

戦士「能和我們好好談一次嗎」

僧侶「是的。請和我們開一次桌邊會談吧」

魔法使い「甜甜圈好吃嗎？」

勇者「雖然是這麼說、一定是打算強制讓我戰鬥吧！！」

魔王「沒有考慮這種事情啦」

勇者「我才不會被騙勒！！！」

魔王「你也給我差不多一點！！」

僧侶「勇者大人！！」

戦士「給我出來」

魔法使い「想被灼熱的火炎給烤成碳嗎？」

勇者「請給我回去吧！！無論如何我都不會戰鬥的！！！」

---

魔王「勇者……」

僧侶「呼……」

戦士「簡直是鉄壁啊」

魔法使い「然而身體卻像空殼？」

魔王「嗯……無計可施了嗎……這樣下去始終就像平行線般啊」

僧侶「說的也是呢」

戦士「我們這邊也只不能只拿錢卻不工作啊」

魔法使い「只工作的話肚子可是會餓扁的喔？」

魔王「別擔心。直到我被打到之前，都會支付你們薪水的」

戦士「魔王……」

魔法使い「真是漢子啊！」

僧侶「真的。好帥呢」

魔王「話說回來問題又回到勇者這邊了。不快點出來的話、我的部隊就快要抵達街上了也不一定」

戦士「不能命令他們停止嗎？」

魔王「雖然可以停止、但恐怕會造成不滿。累積不滿的話、我的部隊可能會相互攻擊了。血氣方剛的人太多了真令人困擾」

---

僧侶「勇者大人……」

魔王「勇者、要怎麼樣你才願意走出房間呢？」

勇者「才不出去」

魔王「這樣可令人困擾啊」

勇者「為何呢麼想被我打倒呢」

魔王「因為預言是這麼說的」

勇者「無視那種東西將世界征服不就好了」

魔王「真的那麼實行的話、之後如果世界出現大混亂的話該怎麼辦？」

勇者「大混亂？」

魔王「比如說……謎之疾病突然大流行、或是發生大饑荒之類的」

勇者「這種事才不會發生勒」

魔王「一旦預言失準之後未來的事情就誰也無法預測了」

勇者「……」

魔王「所以說、快從房間裡出來。然後和我激鬥一場後把我打倒就行了」

勇者「這種野蠻的事情我最討厭了！！」

---

魔法使い「魔王大人魔王大人」

魔王「怎麼啦？」

魔法使い「預言真的寫了最後必須要交戰嗎？」

魔王「嗯。勇者與魔王兵戎相見、並擴展為激烈的戰鬥」

魔法使い「具体而事怎麼樣的激鬥呢？」

魔王「使大地荒廃、讓氷河溶解的激鬥」

（編按：這樣勇者怎麼可能跟你打XD）
戦士「好熱的感覺」

僧侶「真的」

魔法使い「連獄炎也可能會燃燒嗎？」

魔王「也許會如此」

勇者「我才不想那樣勒！！！」

魔王「……」

戦士「唉……無法向前啊。總之、今日就先撤退吧」

魔王「我還會再來的、勇者」

勇者「別再這樣了！！」


－－－－－－－－－－－－－－－END


－－－－－－－－－－－－－－－BEGIN
第00003話：002
002
－－－－－－－－－－－－－－－BODY

即將統一世界的魔王，為了遵行預言而希望自己被勇者打到，讓世界獲得永久的和
平，偏偏勇者卻是一名家裏蹲，而且死都不願踏出房門。為了協助勇者，魔王甚至
花錢幫勇者雇了傭兵（戰士、僧侶、魔法使），不過勇者似乎不太領情！？

==========

魔王城

側近「歡迎回來」

魔王「嗯」

側近「根據先發部隊的報告、街道已經即將被攻陷了」

魔王「是嗎……傳令請他們盡可能不要太粗暴」

側近「遵命」

魔王「勇者這傢伙……到底該如何……」

側近「如果沒辦法強制讓勇者從房間裡出來的話，到底該如何是好？」

魔王「強制嗎……不過、總覺得那樣子很可憐說……」

側近「如果還說這種話的話、即使到天荒地老還是無法讓勇者一行人打到的喔？」

魔王「話雖如此……從我親自出馬以來也過了半個月了。看來差不多得使用強硬一點的手段了啊」

側近「是的」

魔王「……」

---

魔王（不過、勇者也到了多愁善感的年紀）

魔王（在獲得平和的世界中、卻讓勇者的心頹廢了……）

魔王「ˊ真是兩難啊……」

ドラゴン「啊、魔王大人、別來無恙啊」

（編按：「ドラゴン」就是「龍」，通常是RPG世界裡的高階生物）

魔王「嗯」

ドラゴン「……」

魔王「啊、等等」

ドラゴン「怎麼了呢？」

魔王「你、明天應該有空閒吧？」

ドラゴン「嗯、是這樣沒錯」

魔王「好、陪我一下吧」

ドラゴン「有何貴幹呢？」

魔王「總之陪我就是了」

ドラゴン「……？」

---

隔天　勇者家

僧侶「勇者大人ー」

戦士「你也鬧夠了吧ー」

勇者「我絕對不會戰鬥！！！」

魔法使い「這件熊的玩偶裝，可愛嗎？」

勇者「干我屁事！！！」

魔法使い「明明就很可愛說……」

戦士「不行啊」

僧侶「難道只能夠把這扇門毀掉嗎？」

魔法使い「利用爆破轟～地一聲？」

戦士「好」

（編按：喔，三人達成共識了www）
勇者「請住手吧！！這樣做會因為損毀器物而被逮捕的呦！！！」

僧侶「可是……」

魔王「―――呼哈哈哈哈！！！！勇者啊！！！把窗簾拉開看看吧！！！」

勇者「搞啥啊！！我才不拉開勒！！」

---

魔王「唉呀、真糟糕！！你將會錯過這世間難得一件的珍奇景象喔！！」

勇者「我才不要！！」

魔王「魔王乘坐在龍的上方！！怎樣啊！！光是想像就令人起激皮疙瘩地帥勁啊！！」

勇者「我才不想看勒！！！」

魔王「如果是現在的話可以讓你乘坐在龍的背上看看喔？」

勇者「咦……」

魔王「乘坐在龍的背上可不是普通人能夠體驗到的事情！！」

ドラゴン「一般的話才不會讓人乘上來說」

魔王「就是這樣！！如何、很有魅力吧？！」

勇者「不用了！！龍什麼的我才不感興趣！！！」

ドラゴン「啥……」

魔王「喂！！你這不是讓龍感到消沈了嗎！！要怎麼補償呢！？」

勇者「請回去吧！！就當是我拜託你！！！」

魔王「用龍沒辦法釣他出來……完全不懂浪漫啊」

ドラゴン「……竟然說沒興趣……這……」

---

勇者家　庭院

僧侶「魔王大人ー」

魔王「你們也來啦」

戦士「是的。剛剛、已經盡力說服他卻不見成效」

ドラゴン「是啊……被人類說不感到興趣……這還是首次……」

魔法使い「蜥蜴先生、能夠切斷你的尾巴嗎？」

（編按：把龍叫做蜥蜴，還想斷他的尾！？真是好樣的！）

魔王「原本以為如果是龍的話可以激起他的好奇心，至少漏個臉說」

僧侶「一般來說應該看得到吧」

戦士「嗯嗯」

魔王「對吧？實在不了解勇者的感覺」

ドラゴン「嗚……」

魔法使い「果然還是要一把火燒光～嗎？」

魔王「沒有好的提案了嗎？」

魔法使い「放火如何呢？」

---

魔王「我實在不喜歡這種作法啊」

僧侶「但是、姑且不論要不要放火、若不拿出實力來打擊的話」

戦士「不管到什麼時候勇者都不會出面的啊」

魔王「呃」

魔法使い「ドラゴラム！！」

（編按：這是DQⅢ～Ⅶ開始登場的咒語，吟唱者將會變身為巨龍，而且變成無法操縱的狂暴狀態）

ドラゴン「喔～！」

魔法使い「這樣就能變成好朋友了？」

ドラゴン「厲害ー」

（編按：魔法使果然深不可測XD）

戦士「那麼、果然只能將門給打破……」

魔王「等等！」

戦士「又怎麼啦？」

魔王「好吧……用帥氣的方式無效的話、就試試看可愛的方式好了」

僧侶「可愛？」

魔王「召喚我的下屬中擁有第一可愛的魔物」

魔法使い「是浣熊嗎？」

---

勇者「……」

「勇者～大人～、請打開ー」咚咚

勇者「咦？」

「喵ー喵ー」叮咚

勇者「……誰啊？」

「是貓喔ー」

勇者「貓才不會說話」

「是能夠說話的貓喔ー」咚咚

勇者「能夠說話的貓……？」

「喵喵」咚咚

勇者「……」汗

勇者「……」開門

勇者「……」露出頭

キラーマジンガ「啊、出來了」


▲　キラーマジンガ
（編按：DQ6開始登場的下位魔物）

勇者「咦啊啊啊！？！！？！」

---

勇者「哇啊啊啊！！！！」

キラーマジンガ「喵～喵～」

勇者「別靠近！！別過來！！！別殺我啊！！！」

キラーマジンガ「是貓呦ー」鏗鏘鏗鏘

勇者「哇啊啊啊啊！！！！別過來！！！別過來啊啊啊！！！」

キラーマジンガ「喵、怎麼啦喵？」

勇者「救命啊！！！救命啊啊啊！！！！」

キラーマジンガ「勇者大人～、喵喵」

勇者「呀啊啊啊！！！！」

キラーマジンガ「……」鏗鏘鏗鏘

勇者「啊啊……」

キラーマジンガ「喵？」

勇者「……」倒

キラーマジンガ「勇者大人？哈～囉」

キラーマジンガ「睡著了喵」

---

庭院

僧侶「那種就像殺人機器般的機器人會可愛嗎？」

魔王「容貌上雖然有些恐怖、不過在性格上的可愛度卻是無差別級的」

戦士「這樣啊」

魔王「最近、萌的東西似乎很流行。在我的部隊裡頭甚至到了還有粉絲俱樂部的程度呢」

魔法使い「比如說貓耳？」

魔王「是啊。戴著那種東西的也是有的」

僧侶「總覺得令人很愉快呢」

魔王「畢竟休息也是很重要的呢。像キラーマジンガ一般的能夠炒熱氣氛的人也是需要的」

戦士「原來如此呢ー」

キラーマジンガ「魔王大人ー」鏗鏘鏗鏘

魔王「如何了？」

キラーマジンガ「勇者大人、睡著了、在床上、下次再來吧」

魔王「睡著了啊？！呼……キラーマジンガ的治癒能力可真是沒有底線啊」

キラーマジンガ「喵」

（編按：這幾個段落是怎樣啊～）

---

戦士「那麼、趁現在快去房間」

魔王「你要趁的對方睡覺時襲擊嗎？」

僧侶「講得也太難聽了點啊……」

魔法使い「早上也可以夜襲嗎？」

（編按：魔法使，妳問了一個好問題…）

魔王「呃……」

僧侶「用魔法叫他起床如何」

魔王「可是啊……」

戦士「我已經做好覺悟了。再這樣下去的話世界就要被征服囉？」

魔王「這樣就困擾了。把人類納入統治之下等事情可是令人厭煩啊」

僧侶「是這麼回事嗎？」

魔王「似乎存在著各式各樣的門檻、相當麻煩啊」

戦士「啊ー、確實會這樣也不一定」

魔法使い「所以說到了全面開戰的時刻了嗎？」

僧侶「總之先出發吧。必須要和勇者大人好好談談才行」

魔王「說的也是……真是沒辦法啊」

---

勇者的房間

勇者「嗯……嗚……嗯……」

勇者「嗯……？」

魔王「起來啦」

勇者「呀啊啊啊啊啊！！！！！！」

魔王「別發出悲鳴啦」

勇者「怎麼回事！！！這裡是魔王城！？我被抓住了嗎！？」

魔王「不是的！冷靜下來！！」

勇者「是的！！是這樣的對吧！！！我已經在魔王的肚子裡了吧！！！！」

（編按：所以你以為是誰在和你說話啊XD）

魔王「喂！！」

僧侶「勇者大人！！」

戦士「好好看清楚。這是你的房間喔！！」

勇者「咦……啊、真的耶……」

魔王「終於開始了啊、勇者。能夠這樣子相互見到面我感到相當高興！」

魔法使い「勇者大人的垃圾桶、似乎有點髒？」

（編按：魔法使…難不成妳發現了……）

===========

經過了莫名其妙的努力，魔王一行人終於和勇者見到面了，勇者最後是否會遵循預言，和魔王戰鬥呢？請待下回分曉！


－－－－－－－－－－－－－－－END


－－－－－－－－－－－－－－－BEGIN
第00004話：003
003
－－－－－－－－－－－－－－－BODY

為了和勇者見面，魔王一行人試過各種威脅利誘的手段，然而勇這卻抵死不從。最
後魔王派出治癒系魔物キラーマジンガ（？），終於成功誘使勇者開門，並成功進
入勇者的房間。

===============


勇者「請不要擅自檢查好嗎！！」

魔王「勇者……」

勇者「出、出去……我是絕對不會戰鬥的……」

魔王「為何呢？」

勇者「因為我怕痛！！」

魔王「呃……」

僧侶「回復就交給我吧」

勇者「我討厭受傷！！」

戦士「我會保護你的」

勇者「一定……？」

戦士「是的」

勇者「……」

戦士「所以……」

勇者「即便火焰或是爆炸也是？」

戦士「這個嘛……攻擊範圍太廣的話就有點……」

（編按：勇者是從門外的對話就警覺到魔法使很恐怖嗎XD）

---

勇者「我會因為燒傷而死亡的……」抖

魔王「這位實在……」

僧侶「嗯……魔王大人？」

魔王「如何？」

僧侶「總之只要和勇者之間持續不斷地激鬥就行了吧？」

魔王「是又如何？」

僧侶「我是這麼想的、如果只有一方戰鬥的話就不行嗎？」

魔王「是啊、必須兩方都變得滿身瘡痍」

僧侶「如果是這樣的話用寫好劇本、然後透過話劇的方式也是不行的囉」

魔王「……」

戦士「像是演武俠片那樣子？」

僧侶「以勇者大人的觀點來看、如果這樣還不行的話」

魔法使い「我演樹木就可以了嗎？」

勇者「給我出去……拜託了……讓我一個人……」淚光閃閃

魔王「演戲啊……」

---

戦士「讓歷史動搖的假比賽嗎……用演戲的方式似乎也不錯」

僧侶「是的」

（編按：兩位啊，竟然要讓勇者打假球，這樣行嗎XD）

魔王「但是啊、這樣子只要有人願意演勇者的話誰都能辦到啊」

戦士「這樣也不行嗎？」

魔王「根據預言勇者必須要是繼承勇者之血脈的人才行」

（編按：所以魔法使不能當勇者，很遺憾…）

僧侶「那麼……」

勇者「嗚嗚……」淚光閃閃

魔法使い「你一直流淚是很高興嗎？」

勇者「別靠近我！！」

僧侶「我們決定要演戲了、能否麻煩勇者大人也出席好嗎」

魔王「正是如此啊」

勇者「回去……請回去吧……」

魔法使い「發抖～」

魔王「勇者……」

勇者「我不會戰鬥的……不會戰鬥的啦……」

---

魔王「我了解了！！！」

勇者「呀！？」

魔王「夠了。勇者啊、你的事情我已經深深了解了」

勇者「……」

僧侶「魔王大人？」

魔王「確實即便不依照預言的內容進行、世界還是一樣會好好地在運轉吧」

戦士「所以呢？」

魔王「我決定要征服世界了！！」

魔法使い「這不是很不妙嗎？」

魔王「是啊。相當不妙啊！全世界的人類將被納入我的支配之下了！！真可怕啊～！！！」

勇者「……請加油好好統治」

魔王「……」

勇者「我會幫你加油的」

魔王「～～～果然還是把人類都殺光好了！！」

（編按：當魔王真好，隨心所欲啊XD）

勇者「咦咦？！」

---

魔王「你看、很困擾吧。你如果不阻止我的話、不知道會有多少無罪的人因此而喪生喔？」

勇者「……」

魔王「這樣子也好嗎？不、應該不―――」

勇者「隨、隨便你好了。和我一點關係也沒有」

魔王「！？」

僧侶「勇者大人！！」

戦士「喂！！」

魔法使い「三點的點心還沒來嗎？」

（編按：魔法使的KY度超越天際XD）

---

勇者「我雖然屬於勇者的一族……但不具備任何特別的力量……沒辦法阻止您的暴行」

魔王「勇者……這是你的真心嗎？」

勇者「……」

魔王「看著我的眼睛！！」

勇者「請……回去……」

魔王「勇者……」

魔法使い「點心還沒來嗎？」

（編按：點心再不來，我開始擔心世界會被魔法使毀滅掉了XD）

---

魔王「―――那好吧。這句話、我會確實讓你承受的」

僧侶「咦……」

戦士「喂、喂……」

魔王「別了」

勇者「……」

魔王「我真的要走囉？」

勇者「……」

魔王「要阻止我就趁現在囉？」

勇者「……」

魔王「等我回到城裡、一切都遲囉？」

勇者「……」

魔王「還有十秒」

（編按：當父母說：「還有10秒」這句話時，有90%是假的XD）

勇者「請回去！！」

魔王「……我知道了！！我走！！你就給我後悔吧！！！啊哈哈哈哈！！―――哈」大步走開

僧侶「魔王大人……」

---

戦士「勇者、這樣好嗎！？」

僧侶「大家都被殺掉？你的母親也會跟著死亡喔？」

勇者「……」

魔法使い「點心……」

戦士「勇者！！趁現在還來得及、快點追上魔王吧！！」

僧侶「走吧！！」

勇者「由大家來戰鬥不就好了」

僧侶「這個……」

戦士「不是由你來的話是沒辦法獲勝的」

勇者「明明就比我還強……」

戦士「這個……」

勇者「請回吧……讓我一個人靜一靜……」

僧侶「……」

戦士「……」

魔法使い「……」肚子叫

---

街上

魔王「勇者沒追來啊……」

魔王「真是的……！！」

「是魔王啊ー」

「史萊姆醬呢ー？」

魔王「離我遠一點！！」

「魔王、請再讓我看一下魔法ー」

魔王「我可不是藝人啊！！」

「魔王ー」

「魔王ー」

「魔王ー魔王ー」

「啊、是魔王醬」

魔王「喂！！別把人當成吉祥物一般聚集過來啊！！」

「哇～、好恐怖喔～♡」

魔王「可惡……明明不是幹這種事情的時候……」

（編按：魔王大人，我看根本不用征服世界，您的滿意度已經突破9成了吧XD）

---

公園

魔王「呼～……」

魔王「到底該如何是好……」

魔王「真的要認真把這條街到給攻陷嗎……？」

魔王「然而、現在的勇者似乎很輕易地就會接受死亡的樣子」

魔王「勇者一死、世界就成我的所有物了」

魔王「唯有這點一定要避開啊……！！」

魔王「……」

「那個、魔王！！你坐在那邊的話，翹翹板都沒辦法玩了！？」

「無論坐了幾個人都沒辦法動呦！！」

魔王「啊啊、歹勢」站

「呀！！」砰

「不要突然站起來啦！！」

魔王「到底該怎樣啦？」

---

魔王「呃……」

魔王「勇者要怎麼樣才可以拿出幹勁呢？」

勇者母「啊啦、魔王大人」

魔王「這不是媽媽大人嗎」

（編按：原文「母上殿」，是魔王對勇者母親的敬稱，這邊翻成「媽媽大人」）

勇者母「真是太不好意思了」

魔王「別在意啊―――」

勇者母「怎麼了呢？」

魔王（就是這個）

魔王「母親大人、可以打個商量嗎？」

勇者母「嗯、怎、怎麼了？」

魔王「能和我一起去城裡一趟嗎？」

勇者母「不、不成啊……這麼做……不就背叛了死去的丈夫了……」

魔王「呵呵……有什麼不好的呢」

勇者母「魔王……大人……」

（編按：現在是在演哪齣…）

---

戦士「不行啊……」

僧侶「沒辦法修復關係了嗎？」

魔法使い「快四點了。點心還沒好嗎？」

戦士「這個給妳吃」丟

魔法使い「餅乾ー♪」唏囌

（編按：戰士成功化解了世界的危機）

僧侶「唉……」

魔王「―――勇者啊！！聽得到嗎！！」

僧侶「？？！」

戦士「怎麼了！？」

魔王「你最重要的母親就寄放再我這裡了！！希望我還給你的話就到我的城裡來吧！！呼哈哈哈哈！！！」

僧侶「怎麼會……人質！？」

戦士「魔王……竟然會使出這種汙穢的手段……！！」

（編按：呃！他可是魔王耶...）

魔法使い「再多一點。餅乾不太夠了說？」

戦士「拿去」

魔法使い「餅乾ー♪」

---

勇者房間

勇者「咦……！？」

魔王「如果想幫助最重要的母親的話、務必要來我城裡一趟！！行吧！！！！」

勇者「你把母親……！！」

勇者「……」

勇者「何等卑鄙……」

勇者「……」

勇者「但是……我的話……」

勇者「連幫助母親大人的力氣也……沒有……」

勇者「是個有和沒有都一樣的勇者啊……」

勇者「嗚……」泣

戦士「勇者！！」

勇者「……！」

僧侶「去幫助你的母親吧！！」

勇者「……」

---

魔法使い「餅乾好吃嗎？」

勇者「不行啊……我的話……」

戦士「……開什麼玩笑啊」

勇者「咦……？」

戦士「母親被劫走還說那種話啊！！是怎樣啦！？！」

勇者「呀……」

僧侶「請冷靜下來」

魔法使い「鈣質不太充足啊？」

戦士「是母親耶！？把母親的危難晾在一旁、然後說些自己很弱沒有作用的話當藉口嗎！？」

勇者「這、這個……」

戦士「母親死了也沒差……是這麼回事嗎？」

勇者「咦？」

戦士「因為自己很弱所以沒能守護她。沒辦法。你就只會對自己說這種話嗎！？」

僧侶「你說得太過頭了」

魔法使い「可以再來點餅乾嗎？」

---

戦士「站起來」拉

勇者「不、要啦……」

僧侶「那個……暴力是……」

魔法使い「勇者大人、要吃餅乾嗎？」

勇者「咦……？」

魔法使い「你一定是餓了吧、所以缺乏活力。填飽肚子的話活力或許就出來了？」

勇者「……」

戦士「……走囉？」

勇者「……」

僧侶「勇者大人……」

魔法使い「吃了餅乾的話就沒問題囉？」

戦士「來……給我吃」塞

勇者「咦？」

戦士「肚子空空的話、確實會沒有力氣啊」

勇者「……好的」

（編按：沒想到魔法使和戰士竟然成功說服了勇者！？）

---

戦士「出發吧」

勇者「……」

魔法使い「勇者大人、好吃嗎？」

勇者「是……很好吃」

魔法使い「那真是太好了」

僧侶「勇者大人、我一定會守護你的」

戦士「我來當你的盾牌。至死方休」

勇者「……」

魔法使い「需要我變成龍、然後用爆炎把你化為塵埃嗎？」

（按編：這句話應該是對戰士說的）

勇者「那個……請答應我一點」

戦士「什麼？」

勇者「請不要太過胡來……答應我……」

戦士「喔！！」

僧侶「是的！！」

魔法使い「到達魔王城之前嗎？」

（編按：所以進了魔王城就可以惡搞了...）

---

魔王城

魔王「母親大人、那個……」

勇者母「呵呵……魔王大人……」

魔王「嗯……」

側近「相處得很不錯啊」

魔王「勇者呢？」

側近「是的。根據報告已經踏上旅程了」

魔王「總算啊！！～～～總算沒有不爭氣有到連母親都捨棄的程度啊」

側近「要用怎麼樣的方式來迎接勇者呢？」

魔王「像平常一樣就行了。但是、別殺他們。萬一、真的有不小心打倒的情況發生，則在治療後運回鎮上的教会」

（按編：怪不得以前玩RPG在迷宮陣亡的時候，經常都會自動回到教會XD）

側近「我瞭解了」

魔王「麻煩你了」

勇者母「魔王大人……今晚想玩什麼呢？」

魔王「不了……今日果然還是……」

勇者母「不行嗎？誘拐我來的可是魔王大人呢、呵呵」

（按編：看來這裡發生了一些エロゲーム才有的情節啊XD）

=============

勇者一行人終於踏上旅程，不過魔王大人卻已經搶先一步，將媽媽大人的身體與心靈都改造成自己的所有物了。屆時，已經惡墮的母親，或許將以敵人的姿態現身在勇者面前，勇者大人是否會無法承受事實而就此崩潰、一蹶不振呢！？

「絕對想被打倒的魔王＆絕對不想戰鬥的勇者」，將於下一話進入最終回，魔王大人最後能如願以償被勇者擊倒呢嗎？世界的和平真的會降臨嗎，敬請各位期待！

……唉呀，不小心抄到隔壁棚的劇本了（趕緊劃掉），還請大家見諒，呵呵！


－－－－－－－－－－－－－－－END


－－－－－－－－－－－－－－－BEGIN
第00005話：004
004
－－－－－－－－－－－－－－－BODY

由於勇者堅決不肯和魔王決鬥，魔王最後只好出下策、擄走勇者的母親作為威脅。
勇者雖然自認為沒有能力拯救母親，卻在戰士、僧侶與魔法使的鼓勵下勉強振作起
來，一行人踏上了前往魔王城的路途！

==========

數週後

（編按：魔王三裡下就回城了，勇者們卻得花數週！？）

戦士「來了喔」

僧侶「嗯」

魔法使い「勇者大人、還OK吧？」

勇者「是的……」抖抖

戦士「沒問題的。都已經到這裡了」

勇者「可是……」

僧侶「而且已經註定是勇者大人這邊獲勝了。沒什麼好恐懼的」

戦士「是啊。幫助母親、並且讓世界獲得和平吧」

魔法使い「快點回家吃飯、刷牙上床睡覺嗎？」

（編按：看來這次的任務對魔法使來說只是解支線XD）

勇者「說的也是呢……走吧」

戦士「喔」

僧侶「那麼……」

魔法使い「吃點心了嗎？」

---

側近「魔王大人」

魔王「如何了？」

側近「勇者大人來見您了」

魔王「呵呵呵……來了啊」

勇者母「魔王大人……」

魔王「媽媽大人、這幾週以來、真是相當愉快啊」

勇者母「我也是……」

魔王「嗯……」

勇者母「嗯……」

魔王「……接下來就等晚上了」

勇者母「魔王大人……不要走……」

（編按 ：難道媽媽大人真的惡墮了嗎XD）

魔王「好囉。該迎接勇者了！！」

側近「遵命～！！」

勇者母「魔王……大……人……」

---

謁見之間

魔王「……勇者啊。這一天我已經等很久了喔？」

勇者「呀……」

魔王「那麼……來吧。想要解救母親的話、救把我打倒吧！！」

勇者「嗚……」

僧侶「來吧、勇者大人。魔王大人的胸口守備很薄弱」

戦士「看來他打算吃下第一擊的樣子」

魔王「來吧！！快！！來吧！！」

（編按：對方擺明讓你的，還在怕啥= =）

勇者「但是……果然還是很可怕……」

魔法使い「……饅頭好可怕」

魔王「怎麼啦～？！還沒好嗎～！！」

勇者「呀……！！」

僧侶「魔王大人！！請不要那麼大聲啦！！」

戦士「勇者會被嚇到的」

魔王「是、是嗎……抱歉了」

（編按：「魔王大人，你是在大聲什麼啦」）

---

勇者「……」抖抖

魔王「看、我這邊到處都是空隙喔？」

勇者「嗚嗚……」邊走邊晃

僧侶「加油！」

戦士「只差一步囉！！勇者！！」

魔法使い「好軟……」

魔王「好！就是這樣！！加油！！」

勇者「呀……」邊走邊晃

魔王「很好、到射程距離了。揮起劍來！！」

勇者「喝！！」咻

魔王「哇！！被偷襲了！！」

（編按：偷襲！？）

戦士「成功了！！」

僧侶「勇者大人！！太優秀了！！」

魔王「呵呵……接下來輪到我啦」

勇者「哇啊啊啊啊！！！」退退退退

---

魔王「別逃啦！！」

勇者「嗚……戦士……請保護我……」

戦士「真沒辦法……來吧！！魔王！！」

魔王「手下留情……可沒辦法喔？」

戦士「我已經做好覺悟了！！」

魔王「吃我一擊！！！」咚

戦士「來吧？！」

勇者「哇哇！！」

魔王「哼……」

僧侶「沒問題吧！？」

戦士「啊……好、勇者、這次又輪到你了」

勇者「咦……」

（編按：原來他們是採取回合制戰鬥啊XD）

---

戦士「快點上啊！！」

魔王「來吧、勇者的回合。放馬過來！！」

勇者「又、又來啦……？」

魔法使い「睡意突然襲來了？」

僧侶「勇者大人！！」

勇者「喝！！」咻

魔王「好痛！！―――好、又是我的回合了」

勇者「哇哇！！！戰士！！」

戦士「還來喔！？」

魔王「戰士蠻可憐的！！」

勇者「那麼……」

僧侶「咦？！」

魔王「你……！？」

魔法使い「我來當勇者大人的盾牌嗎？」

魔王「你這傢伙……到底要渣到什麼程度啊……！！」

勇者「可、可是……」

魔王「好吧！！僧侶！！下一回合就換妳來承受攻擊吧！！」

僧侶「別這樣啊！！會出人命的！！」

（編按：結果魔王竟然指定讓僧侶當肉墊XD）

---

魔王「哼！！」砰

僧侶「喝！？」

魔王「……呼」

勇者「僧侶……」

僧侶「呃……好、好……勇者大人又輪到你囉……？」

勇者「啊、好……」

魔王「來吧！！」

勇者「嗚……喝！！」咻

魔王「好。已經出現效果囉！！」

勇者「哇！！」

魔法使い「啊拉拉？躲到我的背後來啦？」

魔王「竟然找最貧弱的魔法使當盾牌……」

魔法使い「似乎會很痛的樣子？」

魔王「別怪我啊！！喝！！！」

魔法使い「！？」

---

魔法使い「―――好危險啊」鏗

魔王「？！」

僧侶「咦！？」

魔法使い「……」

魔王「竟然把我的拳……用杖擋住……？！」

魔法使い「想要被地獄的業火燒嗎？」

魔王「啥……」

魔法使い「為何要欺負人呢？？想死嗎？」

（編按：魔法使肯定是別的遊戲破關後才轉來當傭兵的XD）

魔王「喂、喂……」

勇者「那、那個……」

魔法使い「……」

魔王「妳應該是……」

勇者「魔法使吧……？」

魔法使い「嘿！！」揮舞

魔王「噗哇！！」

---

魔法使い「呀！！呀！！」揮舞

魔王「噗哇！？」

戦士「喂！！住手！！」

僧侶「不行啊！！打過頭了！！」

魔法使い「呼～……！！」

魔王「好可怕……」

（編按：結果魔法使不僅「代擋」，甚至還「代打」XD）
勇者「魔王大人……差不多、該把母親大人還給我了」

魔王「咦？」

勇者「我……已經不想再爭鬥了……」

魔王「但是……我無論如何都必須被你打倒……」

勇者「那麼、你已經被我打倒了！！」

魔王「等等。我還沒死啊」

勇者「以社會層面來說已經死囉」

魔王「這是啥……」

勇者「我……已經不想再揮劍了……好重啊」

---

魔王「可是啊……」

勇者母「魔王大人……」

勇者「母親大人！？」

魔王「媽媽大人……為何……？」

（編按：原文是寫「母上殿」，是魔王對於勇者母親的敬稱）

勇者母「我……過然還是對魔王大人……」

魔王「啊、不……這件事情啊……」

勇者「魔王……大人？」

戦士「到底是怎麼回事？」

魔王「啊、那個……」

勇者母「那個夜晚……溫柔地擁抱著我……我……」

魔王「媽媽大人！？」

僧侶「魔王大人……難不成、對寡婦……或著該說人妻出手了……？」

（編按：反正勇者的父親也不在了，有何不妥呢XD）

勇者「……」

魔王「啊、不是……」

魔法使い「不潔」

（編按：咦！妳是魔法使嗎！？）

---

勇者母「魔王大人之外的事情……我已經無法思考了」

魔王「媽媽大人……說得太順口了……」困擾

勇者「……」

僧侶「真是最差勁了呢」

戦士「看了讓人感到損傷啊」

魔法使い「髒東西」

（編按：重複一次！妳真的是魔法使嗎！？）

魔王「等等……誤解啊……！」

勇者母「魔王大人……」

魔王「媽媽大人！！」

勇者「為何偏偏是……我的母親……」

魔王「勇者……這是因為……！！」

僧侶「魔王大人？這邊可是問題點喔？」

魔王「呃……？」

戦士「魔族竟然對人類出手。而且還是身為王的勇者一族。對於下屬的信賴度來說可是顏面掃地啊」

魔法使い「自做自受」

（編按：再重複一次！妳真的真的是魔法使嗎！？）

---

魔王「呃……！！」

勇者「……」

僧侶「趁現在。勇者大人」

戦士「如果不把這件事情傳遍世界各地的話」

（編按：是要po在八卦版嗎XD）

魔法使い「這算醜聞嗎？」

勇者「說得也是呢……」

（編按：好歹也為母親的名聲找想一下吧= =）

魔王「等等……！！」

勇者母「魔王大人……♪」

魔王「哇！！」

勇者「魔王已經……『死了』！！」

僧侶「是的」

戦士「也是啊」

魔法使い「大勝利囉？」

魔王「等等！！等等我啊！！預言可不是這種死法啊！！！」

---

數週後

側近「魔王大人！！反亂軍已經壓迫到這裡了！！」

魔王「呃……！！」

側近「請快點逃走吧！！」

魔王「退下！！」

側近「魔王大人……！！」

魔王「在這裡退下的話還算什麼王！！」

勇者母「太優秀了……♪」

（編按：咦，媽媽大人妳還在啊XD）

側近「我瞭解了……那麼、讓我來陪您最後一程吧」

魔王「喂！！」

側近「因為是未亡人，就對勇者的正妻出手……嗚……」

（編按：這邊的「勇者」指的應該是前代勇者）

魔王「對不起了……我著魔了……雖然身為魔王」

側近「……」

魔王「……」

側近「告辭了……」

---

數個月後　古城

勇者「……魔王大人、總算讓我找到了」

魔王「勇者……」

勇者「你還活著呢」

魔王「媽媽大人如何了？」

勇者「非常健康」

魔王「在這場騷亂之中、我唯一擔心的就是她是否能夠順利逃走……」

（編按：魔王大人，雖然失去了一切，我還是要為您豎起大拇指！）

勇者「魔王大人……」

魔王「在這邊隱居也過了一段時間……世界和平了嗎？」

勇者「不……失去了王的魔物在各地作亂、小村莊一個一個被毀滅了」

魔王「怎麼會……！！」

勇者「再下去連我住的街道也……」

魔王「勇者……你希望我怎麼做？」

勇者「請守護我們……拜託了……」

（編按：還不都你害的，還有臉來求魔王XD）

魔王「來的真是時候啊這傢伙……」

---

街上

勇者「大夥兒！！」

戦士「喔！！」

僧侶「魔王大人！！」

魔法使い「竟然是魔王大人？」

（編按：有妳在、還需要魔王大人出場嗎XD）

魔王「呵呵……好久不見了」

勇者母「啊啊……！！」

勇者「他要來守護我們了」

戦士「這樣好嗎？」

魔王「反正我無論對魔族也好、人類也罷，都是被放逐的身軀。那麼就依照自己喜歡的方式放手去做吧」

僧侶「魔王大人……」

魔王「果然不遵照預言的方式走，最後只會帶來混亂啊……」

勇者「真是抱歉……」

（編按：如果道歉有用，這世界還需要警察嗎XD）

---

魔王「可是……在那遠方的未來、會發展成什麼樣子可真令人期待啊。呵哈哈哈！！」

勇者母「抱緊我！！」


魔物「發現了ー！！」

魔王「給我停手！！」

魔物「？！」

魔王「這種程度的暴行……身為同族的我可是完全看不下去啊！！」

魔物「吵死了ー！！明明自己就對人類出手了說！！」

魔王「！？」

魔物「變態！！」

魔物「野獸！！」

魔物「不知恥！！」

魔王「住嘴……」

魔物「変態！変態！変態！変態！変態！変態！変態！変態！変態！」

魔王「呃……！！！」

魔物「変態！変態！変態！変態！変態！変態！変態！変態！変態！」

魔王「停、給我停下來……！！！」

勇者「魔王……大人……」

（編按：魔物對「美麗的人類女性」出手，這不是再正常也不過的事情了，這群魔物在大驚小怪啥XD）

---

數日後　小屋

魔物「唉呦！！魔王出來啊！！」

魔王「呀！！」

魔物「別對我們再做任何辯解了！！」咚咚

魔王「請原諒我……拜託了……拜託了……」

勇者「魔王大人……從那之後就一直龜在家裡了」

戦士「因為沒有遵從預言才變成這個樣子的……」

僧侶「總覺得有罪惡感啊……」

魔法使い「對於魔族而言、對人類出手是不會被考慮的嗎？」

僧侶「是的。就像人類不會對馬或是狗發情一樣」

勇者「怎麼會這樣啊……」

（編按：有自覺一點啊，勇者！）

魔王「呀……不……饒了我吧……」

勇者母「我會一直在身邊陪您的……」

魔王「媽媽大人……嗚嗚……」流淚

---

勇者母「沒問題……沒問題的……」

魔王「嗚嗚……媽媽大人……」

勇者母「我會守護您的」

魔王「抱歉……真是抱歉……」

勇者母「呵呵……」

魔王「媽媽大人……」



勇者母「―――來吧、魔王大人」

魔王「媽媽……大……人……」

（之後，魔王大人退隱江湖，與媽媽大人一起過著幸福的生活）

---


數年後

魔物「不妙！！那傢伙來了！！！」

勇者妹「死吧！！」咚轟

勇者「喂……」

勇者妹「魔物都是敵人！！！」

勇者「……」

勇者妹「走吧！！把全世界的魔物全部都驅逐掉！！！」

勇者「母親大人……為何要生個妹妹啊……不過5歳時就擁有和魔王相當的實力這也……」

勇者妹「啊哈哈哈哈哈！！！！」

勇者「……不過、托了妹妹的福、世界總算和平了」

勇者妹「快點！！」

勇者「啊、是是……」

勇者妹「把愚弄爸爸的魔物全部給殺光啊啊啊！！！！」

勇者「……」

（全篇完）

=========

最後雖然世界和平了，魔王大人的下場卻有點悲慘！

不過會造就這個結局，魔王自己太過相信預言、勇者的懦弱無能，以及媽媽大人太過美麗、令人無法自拔（？）都是造就悲劇的種種原因。幸虧魔王大人最後和媽媽大人生下了勇者妹，相信在勇者妹的努力下，應該很快就可以幫父親取得昔日的威嚴與榮耀吧XD

至於勇者妹，依照故事裡的描述，５歲時的她就已經具有和父親匹敵的卓越能力，如果真心要當魔王、統治世界，大概也不是太困難的事情。也許本作中唯一有辦法和魔法使一較高下的可能只有她了。


－－－－－－－－－－－－－－－END

